S.No,Company Name,Symbol,Open,High,Low,Close,Vol,Prev. Close,Turnover,Trans.,Diff,Diff %,Range,Range %,90 Days,180 Days,360 Days,52 Weeks High,52 Weeks Low
1,Aarambha Micro Finance Bittiya Sanstha Limited,AMFI,571,571,571,571,10,544,"5,710",1,27,4.96,0,0,-,-,-,"1,400.00",246
2,Agricultural Development Bank Limited,ADBL,313,315,310,310,"12,730",312,"3,959,540",64,-2,-0.64,5,1.61,328.68,368.94,415.2,472,283
3,Api Power Company Limited,API,286,292,285,285,"4,929",291,"1,416,111",31,-6,-2.06,7,2.46,311.08,386.48,450.96,683,246
4,Arun Kabeli Power Limited,AKPL,260,260,250,250,"1,595",261,"408,032",23,-11,-4.21,10,4,278.69,308.29,-,441,212
5,Arun Valley Hydropower Development Company Limited,AHPC,149,150,147,149,"6,943",151,"1,025,346",24,-2,-1.32,3,2.04,167.03,186.34,221.04,285,144
6,Asian Life Insurance Company Limited,ALICL,648,648,635,640,"2,016",650,"1,294,584",14,-10,-1.54,13,2.05,727.31,"1,005.81","1,223.00","1,723.00",520
7,Bank of Kathmandu Limited,BOKL,260,270,253,255,"5,750",262,"1,479,978",29,-7,-2.67,17,6.72,320.97,364.71,429.07,503,250
8,Barun Hydropower Company Limited,BARUN,150,152,150,150,411,151,"61,860",14,-1,-0.66,2,1.33,168.19,183.82,223.15,275,145
9,Bishal Bazar Company Limited,BBC,1660,1660,1660,1660,500,1670,"830,000",3,-10,-0.6,0,0,"1,822.54","1,967.24",-,"3,030.00","1,667.00"
10,Bottlers Nepal (Terai) Limited,BNT,5500,5500,5500,5500,13,5500,"71,500",1,0,0,0,0,"6,160.31","6,495.74","5,272.87","8,287.00","5,336.00"
11,Butwal Power Company Limited,BPCL,448,448,436,438,"7,270",441,"3,189,420",61,-3,-0.68,12,2.75,468.48,554.96,581.79,783,420
12,Central Finance Limited,CFCL,113,114,112,112,919,114,"103,728",6,-2,-1.75,2,1.79,121.1,145.14,183.84,216,110
13,Century Commercial Bank Limited,CCBL,169,170,167,167,"20,591",170,"3,478,303",61,-3,-1.76,3,1.8,176.97,193.18,255.31,295,155
14,Chhimek Laghubitta Bittiya Sanstha Limited,CBBL,884,890,851,855,"4,652",884,"4,033,396",37,-29,-3.28,39,4.58,931.43,"1,012.08","1,204.19","1,752.00",733
15,Chhyangdi Hydropower Company Limited,CHL,137,137,133,134,53,139,"7,141",5,-5,-3.6,4,3.01,151.58,165.59,-,355,134
16,Chilime Hydro power Company Limited,CHCL,748,748,735,740,"4,785",752,"3,537,350",36,-12,-1.6,13,1.77,785.63,827.77,818.48,975,543.74
17,Citizen Investment Trust,CIT,2505,2505,2460,2490,"1,061",2485,"2,624,660",16,5,0.2,45,1.83,"2,672.69","3,124.20","3,456.34","4,857.00","2,298.00"
18,Citizen Mutual Fund-1,CMF1,9.07,9.07,9.07,9.07,200,9.07,"1,814",1,0,0,0,0,-,-,-,10,9
19,Citizens Bank International Limited,CZBIL,238,238,231,232,"22,424",238,"5,300,960",55,-6,-2.52,7,3.03,257.02,273.27,337.23,412,228
20,Civil Bank Limited,CBL,150,150,146,148,"17,699",149,"2,608,381",63,-1,-0.67,4,2.74,155.88,177.37,210.92,272,136
21,Civil Laghubitta Bittiya Sanstha Limited,CLBSL,770,770,750,750,730,770,"551,770",9,-20,-2.6,20,2.67,761.47,893.52,963.7,"1,414.00",613
22,Deprosc Laghubitta Bittiya Sanstha Limited,DDBL,755,760,727,728,"1,524",748,"1,125,153",22,-20,-2.67,33,4.54,783.4,903.41,"1,186.97","1,550.00",605
23,Deva Bikas Bank Limited,DBBL,130,133,125,126,"58,051",132,"7,415,530",174,-6,-4.55,8,6.4,140.16,169.76,207.22,281,126
24,Dibyashwari Hydropower Company Limited,DHPL,111,111,110,110,600,113,"66,100",3,-3,-2.65,1,0.91,121.42,136.25,-,224,106
25,Everest Bank Limited,EBL,668,670,657,660,"6,363",667,"4,219,842",70,-7,-1.05,13,1.98,734.33,888.27,"1,258.16","1,430.00",635
26,Everest Insurance Company Limited,EIC,1320,1320,1290,1290,387,1320,"503,121",17,-30,-2.27,30,2.33,"1,404.21","1,839.78","1,961.28","2,876.00","1,171.00"
27,Excel Development Bank Limited,EDBL,332,332,332,332,"1,000",338,"332,000",1,-6,-1.78,0,0,342.11,380.95,494.64,750,312
28,First Microfinance Laghubitta Bittiya Sanstha Limited,FMDBL,541,541,529,534,"5,718",549,"3,043,788",59,-15,-2.73,12,2.27,558.52,665.01,828.03,"1,200.00",450
29,Forward Community Microfinance Bittiya Sanstha Limited,FOWAD,2267,2267,2135,2135,"2,328",2240,"5,073,770",54,-105,-4.69,132,6.18,"2,174.40","2,790.24",-,"4,140.00","1,544.00"
30,Gandaki Bikas Bank Limited,GDBL,192,193,190,190,884,191,"168,998",15,-1,-0.52,3,1.58,222.41,252,327.15,517,181
31,Garima Bikas Bank Limited,GBBL,180,180,174,178,"4,454",180,"782,973",22,-2,-1.11,6,3.45,187.18,206.19,265.84,308,169
32,Global IME Bank Limited,GBIME,286,289,281,284,"24,565",288,"6,994,293",83,-4,-1.39,8,2.85,305,317.08,357.08,410,275
33,Global IME Laghubitta Bittiya Sanstha Limited,GILB,1253,1300,1201,1201,247,1229,"306,173",16,-28,-2.28,99,8.24,"1,191.33","1,403.16","1,618.02","2,480.00",951
34,Global IME Samunnat Scheme 1,GIMES1,8.46,8.46,8.46,8.46,"1,000",8.46,"8,460",1,0,0,0,0,9.47,9.69,-,10.3,8.28
35,Goodwill Finance Company Limited,GFCL,120,122,120,122,42,122,"5,080",3,0,0,2,1.67,130.92,150.82,232.55,219,117
36,Grameen Bikas Laghubitta Bittiya Sanstha Limited,GBLBS,627,627,588,600,"12,188",615,"7,250,062",103,-15,-2.44,39,6.63,588.69,633.22,672.49,"1,050.00",416
37,Gurans Life Insurance Company Limited,GLICL,882,885,861,861,"1,743",890,"1,509,966",14,-29,-3.26,24,2.79,872,920.56,944.85,"1,300.00",598
38,Gurkhas Finance Limited,GUFL,107,107,104,105,"4,439",107,"469,314",12,-2,-1.87,3,2.88,119.38,141.07,-,213,104
39,Hamro Bikas Bank Limited,HAMRO,133,135,133,135,600,132,"80,150",4,3,2.27,2,1.5,145.41,164.77,276.76,302,129
40,Hathway Finance Company Limited,HATH,128,128,128,128,80,128,"10,240",1,0,0,0,0,140.77,152.46,164.81,226,121
41,Himalayan Bank Limited,HBL,550,550,544,547,948,550,"519,217",12,-3,-0.55,6,1.1,590.43,680.87,793.05,932,530
42,Himalayan Distillery Limited,HDL,1280,1280,1280,1280,50,1268,"64,000",2,12,0.95,0,0,"1,194.43","1,239.06",910.38,"2,246.00",798
43,Himalayan General Insurance Company Limited,HGI,450,450,435,440,"4,290",453,"1,883,180",36,-13,-2.87,15,3.45,462.36,527.72,865.69,964,350
44,Himalayan Power Partner Limited,HPPL,275,280,269,270,"2,580",278,"706,140",38,-8,-2.88,11,4.09,304.26,337.41,-,471,238
45,ICFC Finance Limited,ICFC,180,180,171,172,"1,019",179,"176,399",8,-7,-3.91,9,5.26,188.14,205.87,241.17,307,165
46,IME General Insurance Limited,IGI,880,880,870,870,280,890,"244,650",5,-20,-2.25,10,1.15,896.96,981.58,"1,081.25","1,508.00",660
47,Jalabidyut Lagani Tatha Bikas Company Limited,HIDCL,150,153,149,153,"4,603",153,"691,527",41,0,0,4,2.68,156.98,166.09,183.65,204,134
48,Janata Bank Nepal Limited,JBNL,155,158,151,154,"9,800",152,"1,502,575",42,2,1.32,7,4.64,162.3,189.99,284.27,312,144
49,Janata Bank Nepal Limited Promoter Share,JBNLPO,141,141,139,139,"77,891",143,"10,926,849",3,-4,-2.8,2,1.44,-,-,-,150,143
50,Janautthan Samudayic Laghubitta Bikas Bank Limited,JSLBB,3060,3060,2980,2980,146,3100,"441,920",6,-120,-3.87,80,2.68,"2,824.01","3,116.71","2,883.31","4,110.00","2,173.00"
51,Jyoti Bikash Bank Limited,JBBL,139,139,135,136,"5,756",139,"785,175",20,-3,-2.16,4,2.96,144.88,158.57,204,328.5,132
52,Kailash Bikas Bank Limited,KBBL,226,226,225,225,200,230,"45,055",2,-5,-2.17,1,0.44,231.39,241.02,288.13,355,200
53,Kalika Microcredit Development Bank Limited,KMCDB,1400,1413,1300,1350,"2,829",1373,"3,752,998",42,-23,-1.68,113,8.69,"1,304.67","1,517.91","1,664.33","2,519.00",858
54,Kamana Sewa Bikas Bank Limited,KSBBL,142,143,139,140,"5,679",141,"797,090",23,-1,-0.71,4,2.88,156.22,171.41,-,261,137
55,Kanchan Development Bank Limited,KADBL,191,204,191,204,244,188,"48,076",5,16,8.51,13,6.81,203.74,248.96,371.98,298,176
56,Kankai Bikas Bank Limited,KNBL,126,126,126,126,23,125,"2,896",4,1,0.8,0,0,137.08,159.89,335.21,239,122
57,Karnali Development Bank Limited,KRBL,108,108,106,106,742,110,"79,724",4,-4,-3.64,2,1.89,120.37,176.63,236.06,318,107
58,Khani Khola Hydropower Company Limited,KKHC,110,110,107,107,536,109,"58,904",4,-2,-1.83,3,2.8,124.03,139.08,-,212,106
59,Kisan Microfinance Bittiya Sanstha Limited,KMFL,1650,1650,1559,1559,470,1656,"748,190",9,-97,-5.86,91,5.84,"1,497.46","1,831.95","2,231.35","3,376.00","1,100.00"
60,Kumari Bank Limited,KBL,195,197,187,190,"63,908",196,"12,235,417",108,-6,-3.06,10,5.35,236.68,263.6,321.84,341,195
61,Kumari Bank Limited Promotor Share,KBLPO,112,112,112,112,"390,000",112,"43,680,000",1,0,0,0,0,-,-,-,162,145
62,Laxmi Bank Limited,LBL,257,259,253,257,"253,541",257,"65,154,340",33,0,0,6,2.37,255.44,269.58,395.4,400,209
63,Laxmi Equity Fund,LEMF,8.2,8.2,8.1,8.1,"4,400",8.2,"35,980",2,-0.1,-1.22,0.1,1.23,9.34,-,-,10.3,7.9
64,Laxmi Laghubitta Bittiya Sanstha Limited,LLBS,1143,1143,1085,1090,"1,472",1121,"1,620,062",21,-31,-2.77,58,5.35,"1,134.11","1,237.68","1,411.88","2,240.00",861
65,Laxmi Value Fund-1,LVF1,10.35,10.35,10.3,10.3,"9,000",10.3,"92,920",3,0,0,0.05,0.49,11.04,11.53,11.97,14.59,10.09
66,Life Insurance Corporation Nepal Limited,LICN,1565,1565,1535,1536,498,1542,"769,096",10,-6,-0.39,30,1.95,"1,660.13","1,825.15","2,084.58","2,505.00","1,396.00"
67,Lumbini Bikas Bank Limited,LBBL,146,146,144,145,"7,635",146,"1,107,383",17,-1,-0.68,2,1.39,154.23,170.55,-,242,136
68,Lumbini General Insurance Limited,LGIL,536,541,533,536,"3,993",543,"2,143,469",27,-7,-1.29,8,1.5,558.91,631.08,972.48,"1,100.00",412
69,Machhapuchchhre Bank Limited,MBL,208,208,204,206,"30,458",208,"6,231,336",65,-2,-0.96,4,1.96,225.87,255.89,314.91,381,201
70,Mahalaxmi Bikas Bank Limited,MLBL,172,173,169,169,"1,231",171,"209,813",12,-2,-1.17,4,2.37,176.84,190.12,-,274,158
71,Mahila Sahayatra Microfinance Bittiya Sanstha Limited,MSMBS,711,711,686,686,280,698,"193,540",12,-12,-1.72,25,3.64,713.57,816.82,913.63,"1,319.00",559
72,Mahuli Samudayak Laghubitta Bittiya Sanstha Limited,MSLB,2754,2754,2600,2600,295,2700,"780,530",16,-100,-3.7,154,5.92,"2,578.23",-,-,"3,341.00","1,398.00"
73,Mega Bank Nepal Limited,MEGA,163,165,158,158,"15,573",160,"2,513,728",86,-2,-1.25,7,4.43,375.01,447.31,426.72,449,150
74,Mero Microfinance Bittiya Sanstha Limited,MERO,1080,1097,1075,1075,243,1095,"261,865",10,-20,-1.83,22,2.05,"1,124.76","1,275.98",-,"2,600.00",917
75,Mirmire Laghubitta Bittiya Sanstha Limited,MMFDB,1559,1559,1510,1510,243,1590,"370,780",5,-80,-5.03,49,3.25,"2,374.19","2,624.83","2,619.24","3,417.00","1,400.00"
76,Miteri Development Bank Limited,MDB,290,291,285,285,864,295,"250,616",7,-10,-3.39,6,2.11,293.21,359.69,446.01,587,250
77,Mithila Laghubitta Bittiya Sanstha Limited,MLBBL,1015,1015,1015,1015,250,1025,"253,750",1,-10,-0.98,0,0,"1,025.16","1,146.21","1,342.00","1,480.00",830
78,Muktinath Bikas Bank Limited,MNBBL,381,381,373,373,"10,502",380,"3,943,438",51,-7,-1.84,8,2.14,399.51,455.22,642.02,"1,022.00",356
79,Nabil Bank Limited,NABIL,915,922,911,912,"5,387",918,"4,937,055",77,-6,-0.65,11,1.21,984.12,"1,060.25","1,288.64","1,810.00",888
80,NABIL Bank Limited Promotor Share,NABILP,690,690,678,678,"11,704",690,"8,010,264",110,-12,-1.74,12,1.77,782.64,822.61,970.12,"1,300.00",689
81,Nabil Equity Fund,NEF,8.96,9.05,8.95,9,"13,743",9,"123,985",6,0,0,0.1,1.12,9.2,9.69,-,11,8.2
82,Nagbeli Laghubitta Bikash Bank Limited,NBBL,1399,1399,1280,1280,"1,778",1372,"2,362,550",18,-92,-6.71,119,9.3,"2,274.97","2,654.42","2,824.62","3,986.00","1,249.00"
83,National Hydro Power Company Limited,NHPC,78,81,78,80,"2,200",78,"175,010",9,2,2.56,3,3.85,90.97,104.86,122.11,171,78
84,National Life Insurance Company Limited,NLICL,800,803,790,800,"1,650",803,"1,318,325",23,-3,-0.37,13,1.65,"1,248.52","1,437.99","1,773.84","2,515.00",790
85,National Microfinance Bittiya Sanstha Limited,NMFBS,2195,2195,2116,2122,317,2239,"675,238",13,-117,-5.23,79,3.73,"2,167.20","2,400.03",-,"3,860.00","1,601.00"
86,Naya Nepal Laghubitta Bikas Bank Limited,NNLB,2167,2210,2107,2107,150,2125,"324,290",11,-18,-0.85,103,4.89,"2,050.30","2,342.66","2,088.12","3,328.00","1,640.00"
87,Neco Insurance Company Limited,NIL,550,550,530,532,"3,885",544,"2,073,318",35,-12,-2.21,20,3.77,568.22,690.48,851.54,"1,210.00",448
88,Nepal Bangladesh Bank Limited,NBB,216,216,207,212,"28,124",215,"5,905,700",61,-3,-1.4,9,4.35,228.06,254.77,377.87,430,204
89,Nepal Bank Limited,NBL,284,285,280,280,"28,629",282,"8,057,410",52,-2,-0.71,5,1.79,321.93,337.79,357.57,393,280
90,Nepal Community Development Bank Limited,NCDB,124,124,124,124,50,124,"6,200",1,0,0,0,0,132.48,178.57,259.95,348,111
91,Nepal Credit & Commercial Bank Limited,NCCB,255,255,241,241,"14,583",254,"3,556,967",59,-13,-5.12,14,5.81,260.64,301.14,351.53,396,217
92,Nepal Doorsanchar Company Limited,NTC,725,725,720,724,"10,645",725,"7,674,106",14,-1,-0.14,5,0.69,740.13,777.94,723.93,952,660
93,Nepal Hydro Developer Limited,NHDL,168,180,168,180,70,169,"12,060",7,11,6.51,12,7.14,189.12,-,-,328,158
94,Nepal Insurance Company Limited,NICL,625,625,613,615,947,631,"585,843",10,-16,-2.54,12,1.96,747.04,"1,072.24","1,147.55","1,737.00",513
95,Nepal Investment Bank Limited,NIB,629,629,617,618,"14,870",621,"9,236,781",151,-3,-0.48,12,1.94,647.46,651.64,696.14,813,600
96,Nepal Investment Bank Limited Promoter Share,NIBPO,543,548,542,542,"4,850",547,"2,633,150",27,-5,-0.91,6,1.11,565.74,573.24,609.75,715,514.8
97,Nepal Life Insurance Company Limited,NLIC,1030,1035,1000,1000,"10,586",1025,"10,720,815",179,-25,-2.44,35,3.5,"1,213.88","1,534.18","1,908.37","2,340.00",975
98,Nepal SBI Bank Limited,SBI,500,510,490,495,"6,053",503,"3,011,582",43,-8,-1.59,20,4.08,535.82,607.65,856.44,965,481
99,Nerude Laghubitta Bittiya Sanstha Limited,NLBBL,652,652,631,631,"5,346",656,"3,410,074",41,-25,-3.81,21,3.33,706.92,825.33,"1,077.02","1,525.00",595
100,Ngadi Group Power Limited,NGPL,170,170,164,170,156,173,"25,860",14,-3,-1.73,6,3.66,196.71,217.38,247.76,308,163
101,NIBL Pragati Fund,NIBLPF,8.05,8.05,8,8,758,8,"6,089",2,0,0,0.05,0.63,8.99,9.5,-,10.4,7.84
102,NIC Asia Bank Limited,NICA,313,315,311,315,"13,648",311,"4,270,528",43,4,1.29,4,1.29,325.99,339.13,394.51,483,285
103,NIC Asia Growth Fund,NICGF,9,9,9,9,"1,825",9,"16,425",2,0,0,0,0,-,-,-,10,8.82
104,Nirdhan Utthan Laghubitta Bittiya Sanstha Limited,NUBL,1035,1036,1011,1018,"2,216",1017,"2,265,333",25,1,0.1,25,2.47,"1,112.48","1,478.56","1,639.11","2,626.00",888
105,NLG Insurance Company Limited,NLG,945,945,882,885,992,934,"891,020",23,-49,-5.25,63,7.14,897.32,"1,138.75","1,284.87","1,750.00",710
106,NMB Bank Limited,NMB,360,361,352,354,"15,943",354,"5,638,163",50,0,0,9,2.56,416.79,443.76,487.18,580,338
107,NMB Microfinance Bittiya Sanstha Limited,NMBMF,1570,1690,1570,1636,"9,759",1540,"16,104,595",196,96,6.23,120,7.64,"1,481.68","1,743.52","2,019.31","3,266.00","1,125.00"
108,Om Development Bank Limited,ODBL,174,174,171,171,"2,541",173,"436,070",13,-2,-1.16,3,1.75,185,219.77,-,478,164
109,Oriental Hotel Limited,OHL,512,520,501,520,852,521,"439,462",9,-1,-0.19,19,3.79,544.31,623.71,633.49,990,437
110,Pokhara Finance Limited,PFL,133,137,132,135,885,133,"119,015",14,2,1.5,5,3.79,148.44,173.78,212.29,269,130
111,Prabhu Bank Limited,PRVU,185,186,178,181,"24,170",183,"4,397,882",82,-2,-1.09,8,4.49,208.64,260.09,320.71,418,173
112,Prabhu Bank Limited Promoter Share,PRVUPO,157,157,157,157,"20,000",160,"3,140,000",1,-3,-1.88,0,0,171.74,-,-,190,160
113,Prabhu Insurance Company Limited,PRIN,520,520,513,515,"3,207",525,"1,659,188",30,-10,-1.9,7,1.36,628.79,748.19,917.96,"1,279.00",483
114,Premier Insurance Company Limited,PIC,1120,1120,1100,1109,"6,894",1120,"7,632,640",148,-11,-0.98,20,1.82,"1,117.97","1,280.91","1,418.81","1,895.00",686
115,Prime Commercial Bank Limited,PCBL,285,287,279,284,"16,169",285,"4,560,773",52,-1,-0.35,8,2.87,300.2,337.66,381.83,464,265
116,Prime Life Insurance Company Limited,PLIC,545,546,527,537,"9,679",543,"5,187,868",81,-6,-1.1,19,3.61,635.58,"1,201.05","1,649.74","2,900.00",480
117,Progressive Finance Limited,PROFL,140,140,138,138,800,140,"111,000",3,-2,-1.43,2,1.45,172.78,199.74,207.4,265,139
118,Prudential Insurance Company Limited,PICL,775,780,770,770,"1,957",790,"1,514,815",14,-20,-2.53,10,1.3,759.03,891.9,"1,093.55","1,723.00",545
119,Prudential Insurance Company Limited Promoter Share,PICLPO,440,440,440,440,"21,383",440,"9,408,520",2,0,0,0,0,-,-,-,855,410
120,Purnima Bikas Bank Limited,PURBL,173,176,172,172,725,173,"125,355",9,-1,-0.58,4,2.33,192.14,231.7,288.77,332,168
121,Radhi Bidyut Company Limited,RADHI,236,236,215,219,"3,970",232,"878,310",40,-13,-5.6,21,9.77,-,-,-,319,139
122,Rairang Hydropower Development Company Limited.,RRHP,149,158,147,148,"2,110",152,"314,210",111,-4,-2.63,11,7.48,-,-,-,295,140
123,Rastriya Beema Company Limited,RBCL,11100,11100,10705,10749,191,10900,"2,068,160",13,-151,-1.39,395,3.69,"11,288.32","12,988.89","13,604.79","18,989.00","7,850.00"
124,Rastriya Beema Company Limited Promoter Share,RBCLPO,10000,10000,9800,9830,411,10150,"4,044,470",12,-320,-3.15,200,2.04,"10,576.12","12,222.80","12,655.55","17,150.00","7,628.00"
125,Reliance Finance Limited,RLFL,117,119,117,119,654,116,"77,666",2,3,2.59,2,1.71,124.2,150.17,188.52,237,113
126,Ridi Hydropower Development Company Limited,RHPC,120,124,118,118,"2,576",122,"308,244",17,-4,-3.28,6,5.08,129.34,140.72,171.48,213,115
127,RMDC Laghubitta Bittiya Sanstha Limited,RMDC,651,651,638,650,"2,291",662,"1,479,674",29,-12,-1.81,13,2.04,645.79,664.28,699.66,905,515
128,RSDC Laghubitta Bittiya Sanstha Limited,RSDC,550,550,541,542,"1,275",540,"693,606",27,2,0.37,9,1.66,715.1,950.49,-,"3,250.00",493
129,Sagarmatha Insurance Company Limited,SIC,1300,1301,1296,1296,"1,240",1316,"1,610,410",17,-20,-1.52,5,0.39,"1,320.92","1,391.41","1,406.36","1,892.00",988
130,Sahayogi Vikas Bank Limited,SBBLJ,192,192,190,190,"1,439",192,"274,288",3,-2,-1.04,2,1.05,202.88,250.23,304.01,394,184
131,Samata Microfinance Bittiya Sanstha Limited,SMATA,1458,1483,1454,1454,82,1430,"120,736",5,24,1.68,29,1.99,-,-,-,"2,374.00",411
132,Sana Kisan Laghubitta Bittiya Sanstha Limited,SKBBL,1152,1164,1125,1164,"7,253",1174,"8,215,170",70,-10,-0.85,39,3.47,"1,174.07","1,235.39","1,309.74","1,711.00",961
133,Sanima Bank Limited,SANIMA,330,330,320,324,"21,936",324,"7,075,322",92,0,0,10,3.13,346.6,347.68,402.24,450,299.2
134,Sanima Equity Fund,SAEF,9.01,9.01,9.01,9.01,"1,625",8.97,"14,641",1,0.04,0.45,0,0,-,-,-,10.2,8.82
135,Sanima Mai Hydropower Limited,SHPC,330,330,322,328,"7,606",330,"2,465,226",27,-2,-0.61,8,2.48,348.5,413.31,647.54,"1,180.00",299
136,Saptakoshi Development Bank Limited,SKDBL,117,119,115,115,742,117,"86,304",6,-2,-1.71,4,3.48,127.06,143.32,217.58,210,113
137,Shangrila Development Bank Limited,SADBL,148,150,145,145,"17,487",147,"2,569,364",44,-2,-1.36,5,3.45,169.4,221.3,300.29,426,145
138,Shikhar Insurance Company Limited,SICL,945,948,930,937,"2,315",945,"2,171,478",27,-8,-0.85,18,1.94,"1,014.41","1,246.54","1,630.11","2,200.00",850
139,Shine Resunga Development Bank Limited,SHINE,279,280,275,275,"1,213",280,"334,183",11,-5,-1.79,5,1.82,284.51,322.24,360.09,455,250
140,Shree Investment Finance Company Limited,SIFC,153,153,146,146,"1,564",150,"233,004",6,-4,-2.67,7,4.79,214.53,308.7,350.36,519,145
141,Siddhartha Bank Limited,SBL,300,301,296,298,"11,895",300,"3,546,757",55,-2,-0.67,5,1.69,315.61,348.23,483.54,500,275
142,Siddhartha Equity Fund,SEF,8.92,8.92,8.82,8.82,"2,000",8.91,"17,790",2,-0.09,-1.01,0.1,1.13,9.51,-,-,10.2,8.8
143,Siddhartha Insurance Limited,SIL,700,700,680,690,"2,917",701,"2,002,393",19,-11,-1.57,20,2.94,793.52,950.63,"1,204.61","1,745.00",647
144,Sindhu Bikas Bank Limited,SINDU,134,134,131,131,279,134,"37,136",3,-3,-2.24,3,2.29,143.11,170.27,289.74,377,122
145,Soaltee Hotel Limited,SHL,241,245,230,230,"9,938",237,"2,310,911",31,-7,-2.95,15,6.52,250.3,275.83,306.99,400,222
146,Standard Chartered Bank Nepal Limited,SCB,772,770,735,740,"7,374",758,"5,549,707",110,-18,-2.37,35,4.76,822.1,"1,234.16","1,704.93","2,399.00",714
147,Summit Micro Finance Development Bank Limited,SMFDB,971,971,965,966,"2,815",990,"2,730,865",6,-24,-2.42,6,0.62,"1,001.36","1,340.38","1,898.17","3,774.00",785
148,Sunrise Bank Limited,SRBL,221,225,217,218,"10,892",221,"2,386,585",54,-3,-1.36,8,3.69,237.93,257.61,341.83,408,215
149,Support Microfinance Bittiya Sanstha Limited,SMB,749,763,749,763,20,714,"15,120",2,49,6.86,14,1.87,-,-,-,"1,118.00",307
150,Surya Life Insurance Company Limited,SLICL,600,605,560,571,"4,834",590,"2,787,468",37,-19,-3.22,45,8.04,700.17,830.08,891.88,"1,322.00",547
151,Suryodaya Laghubitta Bittiya Sanstha Limited,SLBS,1520,1535,1481,1500,384,1541,"574,542",29,-41,-2.66,54,3.65,"1,406.74",-,-,"1,765.00",685
152,Swabalamban Laghubitta Bittiya Sanstha Limited,SWBBL,1275,1275,1220,1260,"1,350",1300,"1,677,290",18,-40,-3.08,55,4.51,"1,263.67","1,324.32","1,475.29","2,041.00",961
153,Swadeshi Laghubitta Bittiya Sanstha Limited,SDESI,1734,1734,1668,1668,320,1705,"535,939",19,-37,-2.17,66,3.96,"1,288.33",-,-,"1,950.00",301.84
154,Swarojgar Laghubitta Bittiya Sanstha Limited,SLBBL,866,918,860,870,"6,815",866,"6,086,424",87,4,0.46,58,6.74,"1,557.10","1,661.94","1,890.76","2,698.00","1,020.00"
155,Synergy Power Development Limited,SPDL,128,128,125,125,423,126,"53,223",10,-1,-0.79,3,2.4,133.28,148.18,-,272,122
156,Taragaon Regency Hotel Limited,TRH,262,262,262,262,10,265,"2,620",1,-3,-1.13,0,0,275.97,287.08,267.03,348,241
157,Tinau Development Bank Limited,TNBL,171,171,165,165,381,170,"63,522",7,-5,-2.94,6,3.64,192.67,222.33,301.03,350,162
158,United Finance Limited,UFL,167,167,164,164,197,167,"32,599",4,-3,-1.8,3,1.83,213.41,241.54,301.89,285,157
159,United Insurance Company (Nepal) Limited,UIC,934,934,891,892,"3,854",934,"3,474,428",30,-42,-4.5,43,4.83,957.94,"1,073.48","1,202.36","1,680.00",689
160,United Modi Hydropower Limited,UMHL,166,167,165,166,668,163,"111,046",11,3,1.84,2,1.21,182.81,214.67,-,363,151
161,Unnati Microfinance Bittiya Sanstha Limited,UMB,1900,1920,1815,1820,605,1881,"1,126,290",37,-61,-3.24,105,5.79,-,-,-,"2,280.00",506
162,Vijaya Laghubitta Bittiya Sanstha Limited,VLBS,788,788,750,760,577,804,"441,276",20,-44,-5.47,38,5.07,797.33,901.98,"1,043.49","1,520.00",650
163,Womi Microfinance Bittiya Sanstha Limited,WOMI,1448,1448,1347,1348,260,1420,"369,310",8,-72,-5.07,101,7.5,"1,466.58","1,533.24","1,604.11","2,140.00","1,110.00"